µP_RP2040_Pulse-Generator/wokwi-logic (µP_RP2040_Pulse-Generator).vcd
$version Generated by Wokwi.com $end
$date Sat, 29 Apr 2023 13:25:32 GMT $end
$timescale 1ns $end
$scope module logic $end
$var wire 1 ! D0 $end
$upscope $end
$enddefinitions $end
#0
1!
#85966232
0!
#5471463280
1!
#8239587336
0!
#10471445008
1!
#13461707016
0!
#15471465720
1!
#17931562656
0!
#20471451688
1!
#22724549000
0!
#25471458160
1!
#27911558224
0!
#30471500160
1!
#32860604896
0!
#35471443944
1!
#38415557112
0!
#40471445944
1!
#41882558800
0!
#45471444080
1!
#46673533112
0!
#50471458192
1!
#51883554072
0!
#54049725216
0!
